%YAML 1.1
%TAG !u! tag:unity3d.com,2011:
--- !u!114 &11400000
MonoBehaviour:
  m_ObjectHideFlags: 0
  m_PrefabParentObject: {fileID: 0}
  m_PrefabInternal: {fileID: 0}
  m_GameObject: {fileID: 0}
  m_Enabled: 1
  m_EditorHideFlags: 0
  m_Script: {fileID: 11500000, guid: 5c5551e591478064190b5c33e12f2f63, type: 3}
  m_Name: tut_tirbar
  m_EditorClassIdentifier: 
  tutImages:
  - {fileID: 21300000, guid: 6011d529f16ab5540b6a3936846d4a2a, type: 3}
  - {fileID: 21300000, guid: 542ad572dc74a434888c34f1fb752e1f, type: 3}
  - {fileID: 21300000, guid: 55fcafab5c433bd4280b912083111e24, type: 3}
