%YAML 1.1
%TAG !u! tag:unity3d.com,2011:
--- !u!74 &7400000
AnimationClip:
  m_ObjectHideFlags: 0
  m_CorrespondingSourceObject: {fileID: 0}
  m_PrefabInstance: {fileID: 0}
  m_PrefabAsset: {fileID: 0}
  m_Name: En_Boss_Walk_Left
  serializedVersion: 6
  m_Legacy: 0
  m_Compressed: 0
  m_UseHighQualityCurve: 1
  m_RotationCurves: []
  m_CompressedRotationCurves: []
  m_EulerCurves: []
  m_PositionCurves: []
  m_ScaleCurves: []
  m_FloatCurves:
  - curve:
      serializedVersion: 2
      m_Curve:
      - serializedVersion: 3
        time: 0
        value: 0
        inSlope: -0.22285715
        outSlope: -0.22285715
        tangentMode: 34
        weightedMode: 0
        inWeight: 0.33333334
        outWeight: 0.33333334
      - serializedVersion: 3
        time: 0.5833333
        value: -0.13
        inSlope: -0.22285715
        outSlope: -0.22285715
        tangentMode: 34
        weightedMode: 0
        inWeight: 0.33333334
        outWeight: 0.33333334
      m_PreInfinity: 2
      m_PostInfinity: 2
      m_RotationOrder: 4
    attribute: m_Offset.x
    path: 
    classID: 60
    script: {fileID: 0}
  m_PPtrCurves:
  - curve:
    - time: 0
      value: {fileID: 21300000, guid: fd96d9ed409c344479dc029c2d992c24, type: 3}
    - time: 0.083333336
      value: {fileID: 21300002, guid: fd96d9ed409c344479dc029c2d992c24, type: 3}
    - time: 0.16666667
      value: {fileID: 21300004, guid: fd96d9ed409c344479dc029c2d992c24, type: 3}
    - time: 0.25
      value: {fileID: 21300006, guid: fd96d9ed409c344479dc029c2d992c24, type: 3}
    - time: 0.33333334
      value: {fileID: 21300008, guid: fd96d9ed409c344479dc029c2d992c24, type: 3}
    - time: 0.41666666
      value: {fileID: 21300010, guid: fd96d9ed409c344479dc029c2d992c24, type: 3}
    - time: 0.5
      value: {fileID: 21300012, guid: fd96d9ed409c344479dc029c2d992c24, type: 3}
    - time: 0.5833333
      value: {fileID: 21300014, guid: fd96d9ed409c344479dc029c2d992c24, type: 3}
    attribute: m_Sprite
    path: 
    classID: 212
    script: {fileID: 0}
  m_SampleRate: 12
  m_WrapMode: 0
  m_Bounds:
    m_Center: {x: 0, y: 0, z: 0}
    m_Extent: {x: 0, y: 0, z: 0}
  m_ClipBindingConstant:
    genericBindings:
    - serializedVersion: 2
      path: 0
      attribute: 413499720
      script: {fileID: 0}
      typeID: 60
      customType: 0
      isPPtrCurve: 0
    - serializedVersion: 2
      path: 0
      attribute: 0
      script: {fileID: 0}
      typeID: 212
      customType: 23
      isPPtrCurve: 1
    pptrCurveMapping:
    - {fileID: 21300000, guid: fd96d9ed409c344479dc029c2d992c24, type: 3}
    - {fileID: 21300002, guid: fd96d9ed409c344479dc029c2d992c24, type: 3}
    - {fileID: 21300004, guid: fd96d9ed409c344479dc029c2d992c24, type: 3}
    - {fileID: 21300006, guid: fd96d9ed409c344479dc029c2d992c24, type: 3}
    - {fileID: 21300008, guid: fd96d9ed409c344479dc029c2d992c24, type: 3}
    - {fileID: 21300010, guid: fd96d9ed409c344479dc029c2d992c24, type: 3}
    - {fileID: 21300012, guid: fd96d9ed409c344479dc029c2d992c24, type: 3}
    - {fileID: 21300014, guid: fd96d9ed409c344479dc029c2d992c24, type: 3}
  m_AnimationClipSettings:
    serializedVersion: 2
    m_AdditiveReferencePoseClip: {fileID: 0}
    m_AdditiveReferencePoseTime: 0
    m_StartTime: 0
    m_StopTime: 0.6666666
    m_OrientationOffsetY: 0
    m_Level: 0
    m_CycleOffset: 0
    m_HasAdditiveReferencePose: 0
    m_LoopTime: 1
    m_LoopBlend: 0
    m_LoopBlendOrientation: 0
    m_LoopBlendPositionY: 0
    m_LoopBlendPositionXZ: 0
    m_KeepOriginalOrientation: 0
    m_KeepOriginalPositionY: 1
    m_KeepOriginalPositionXZ: 0
    m_HeightFromFeet: 0
    m_Mirror: 0
  m_EditorCurves:
  - curve:
      serializedVersion: 2
      m_Curve:
      - serializedVersion: 3
        time: 0
        value: 0
        inSlope: -0.22285715
        outSlope: -0.22285715
        tangentMode: 34
        weightedMode: 0
        inWeight: 0.33333334
        outWeight: 0.33333334
      - serializedVersion: 3
        time: 0.5833333
        value: -0.13
        inSlope: -0.22285715
        outSlope: -0.22285715
        tangentMode: 34
        weightedMode: 0
        inWeight: 0.33333334
        outWeight: 0.33333334
      m_PreInfinity: 2
      m_PostInfinity: 2
      m_RotationOrder: 4
    attribute: m_Offset.x
    path: 
    classID: 60
    script: {fileID: 0}
  m_EulerEditorCurves: []
  m_HasGenericRootTransform: 0
  m_HasMotionFloatCurves: 0
  m_Events: []
