%YAML 1.1
%TAG !u! tag:unity3d.com,2011:
--- !u!74 &7400000
AnimationClip:
  m_ObjectHideFlags: 0
  m_PrefabParentObject: {fileID: 0}
  m_PrefabInternal: {fileID: 0}
  m_Name: 1Star
  serializedVersion: 6
  m_Legacy: 1
  m_Compressed: 0
  m_UseHighQualityCurve: 1
  m_RotationCurves: []
  m_CompressedRotationCurves: []
  m_EulerCurves: []
  m_PositionCurves: []
  m_ScaleCurves:
  - curve:
      serializedVersion: 2
      m_Curve:
      - time: 0
        value: {x: 0, y: 0, z: 0}
        inSlope: {x: 3.3, y: 3.3, z: 3}
        outSlope: {x: 3.3, y: 3.3, z: 3}
        tangentMode: 0
      - time: 0.33333334
        value: {x: 1.1, y: 1.1, z: 1}
        inSlope: {x: 1.3499999, y: 1.3499999, z: 1.5}
        outSlope: {x: 1.3499999, y: 1.3499999, z: 1.5}
        tangentMode: 0
      - time: 0.5
        value: {x: 1, y: 1, z: 1}
        inSlope: {x: -0.6000002, y: -0.6000002, z: 0}
        outSlope: {x: -0.6000002, y: -0.6000002, z: 0}
        tangentMode: 0
      m_PreInfinity: 2
      m_PostInfinity: 2
      m_RotationOrder: 4
    path: Star1
  - curve:
      serializedVersion: 2
      m_Curve:
      - time: 0.2777778
        value: {x: 1, y: 1, z: 1}
        inSlope: {x: -1.8000005, y: -1.8000005, z: 0}
        outSlope: {x: -1.8000005, y: -1.8000005, z: 0}
        tangentMode: 0
      - time: 0.33333334
        value: {x: 0.9, y: 0.9, z: 1}
        inSlope: {x: 0, y: 0, z: 0}
        outSlope: {x: 0, y: 0, z: 0}
        tangentMode: 0
      - time: 0.3888889
        value: {x: 1, y: 1, z: 1}
        inSlope: {x: 1.8000005, y: 1.8000005, z: 0}
        outSlope: {x: 1.8000005, y: 1.8000005, z: 0}
        tangentMode: 0
      m_PreInfinity: 2
      m_PostInfinity: 2
      m_RotationOrder: 4
    path: 
  m_FloatCurves: []
  m_PPtrCurves: []
  m_SampleRate: 36
  m_WrapMode: 0
  m_Bounds:
    m_Center: {x: 0, y: 0, z: 0}
    m_Extent: {x: 0, y: 0, z: 0}
  m_ClipBindingConstant:
    genericBindings: []
    pptrCurveMapping: []
  m_AnimationClipSettings:
    serializedVersion: 2
    m_AdditiveReferencePoseClip: {fileID: 0}
    m_AdditiveReferencePoseTime: 0
    m_StartTime: 0
    m_StopTime: 0.5
    m_OrientationOffsetY: 0
    m_Level: 0
    m_CycleOffset: 0
    m_HasAdditiveReferencePose: 0
    m_LoopTime: 0
    m_LoopBlend: 0
    m_LoopBlendOrientation: 0
    m_LoopBlendPositionY: 0
    m_LoopBlendPositionXZ: 0
    m_KeepOriginalOrientation: 0
    m_KeepOriginalPositionY: 1
    m_KeepOriginalPositionXZ: 0
    m_HeightFromFeet: 0
    m_Mirror: 0
  m_EditorCurves:
  - curve:
      serializedVersion: 2
      m_Curve:
      - time: 0
        value: 0
        inSlope: 3.3
        outSlope: 3.3
        tangentMode: 10
      - time: 0.33333334
        value: 1.1
        inSlope: 1.3499999
        outSlope: 1.3499999
        tangentMode: 10
      - time: 0.5
        value: 1
        inSlope: -0.6000002
        outSlope: -0.6000002
        tangentMode: 10
      m_PreInfinity: 2
      m_PostInfinity: 2
      m_RotationOrder: 4
    attribute: m_LocalScale.x
    path: Star1
    classID: 224
    script: {fileID: 0}
  - curve:
      serializedVersion: 2
      m_Curve:
      - time: 0
        value: 0
        inSlope: 3.3
        outSlope: 3.3
        tangentMode: 10
      - time: 0.33333334
        value: 1.1
        inSlope: 1.3499999
        outSlope: 1.3499999
        tangentMode: 10
      - time: 0.5
        value: 1
        inSlope: -0.6000002
        outSlope: -0.6000002
        tangentMode: 10
      m_PreInfinity: 2
      m_PostInfinity: 2
      m_RotationOrder: 4
    attribute: m_LocalScale.y
    path: Star1
    classID: 224
    script: {fileID: 0}
  - curve:
      serializedVersion: 2
      m_Curve:
      - time: 0
        value: 0
        inSlope: 3
        outSlope: 3
        tangentMode: 10
      - time: 0.33333334
        value: 1
        inSlope: 1.5
        outSlope: 1.5
        tangentMode: 10
      - time: 0.5
        value: 1
        inSlope: 0
        outSlope: 0
        tangentMode: 10
      m_PreInfinity: 2
      m_PostInfinity: 2
      m_RotationOrder: 4
    attribute: m_LocalScale.z
    path: Star1
    classID: 224
    script: {fileID: 0}
  - curve:
      serializedVersion: 2
      m_Curve:
      - time: 0.2777778
        value: 1
        inSlope: -1.8000005
        outSlope: -1.8000005
        tangentMode: 10
      - time: 0.33333334
        value: 0.9
        inSlope: 0
        outSlope: 0
        tangentMode: 10
      - time: 0.3888889
        value: 1
        inSlope: 1.8000005
        outSlope: 1.8000005
        tangentMode: 10
      m_PreInfinity: 2
      m_PostInfinity: 2
      m_RotationOrder: 4
    attribute: m_LocalScale.x
    path: 
    classID: 224
    script: {fileID: 0}
  - curve:
      serializedVersion: 2
      m_Curve:
      - time: 0.2777778
        value: 1
        inSlope: -1.8000005
        outSlope: -1.8000005
        tangentMode: 10
      - time: 0.33333334
        value: 0.9
        inSlope: 0
        outSlope: 0
        tangentMode: 10
      - time: 0.3888889
        value: 1
        inSlope: 1.8000005
        outSlope: 1.8000005
        tangentMode: 10
      m_PreInfinity: 2
      m_PostInfinity: 2
      m_RotationOrder: 4
    attribute: m_LocalScale.y
    path: 
    classID: 224
    script: {fileID: 0}
  - curve:
      serializedVersion: 2
      m_Curve:
      - time: 0.2777778
        value: 1
        inSlope: 0
        outSlope: 0
        tangentMode: 10
      - time: 0.33333334
        value: 1
        inSlope: 0
        outSlope: 0
        tangentMode: 10
      - time: 0.3888889
        value: 1
        inSlope: 0
        outSlope: 0
        tangentMode: 10
      m_PreInfinity: 2
      m_PostInfinity: 2
      m_RotationOrder: 4
    attribute: m_LocalScale.z
    path: 
    classID: 224
    script: {fileID: 0}
  m_EulerEditorCurves: []
  m_HasGenericRootTransform: 0
  m_HasMotionFloatCurves: 0
  m_GenerateMotionCurves: 0
  m_Events:
  - time: 0
    functionName: FisrtStarsParticle
    data: 
    objectReferenceParameter: {fileID: 0}
    floatParameter: 0
    intParameter: 0
    messageOptions: 0
  - time: 0.5
    functionName: StopCounting
    data: 
    objectReferenceParameter: {fileID: 0}
    floatParameter: 0
    intParameter: 0
    messageOptions: 0
