%YAML 1.1
%TAG !u! tag:unity3d.com,2011:
--- !u!114 &11400000
MonoBehaviour:
  m_ObjectHideFlags: 0
  m_CorrespondingSourceObject: {fileID: 0}
  m_PrefabInstance: {fileID: 0}
  m_PrefabAsset: {fileID: 0}
  m_GameObject: {fileID: 0}
  m_Enabled: 1
  m_EditorHideFlags: 0
  m_Script: {fileID: 11500000, guid: 44ff22f473f9dda4c9ea762b0d49f037, type: 3}
  m_Name: Explosive palette
  m_EditorClassIdentifier: 
  palette:
  - go: {fileID: 11400000, guid: dc16911a19390334487d487f28069709, type: 2}
    gameObjectEditor: {fileID: 0}
  - go: {fileID: 11400000, guid: 608e48d6ea1624b43a472280f12e47db, type: 2}
    gameObjectEditor: {fileID: 0}
  - go: {fileID: 11400000, guid: 2c648d7c012a20645874d38418416722, type: 2}
    gameObjectEditor: {fileID: 0}
