%YAML 1.1
%TAG !u! tag:unity3d.com,2011:
--- !u!1045 &1
EditorBuildSettings:
  m_ObjectHideFlags: 0
  serializedVersion: 2
  m_Scenes:
  - enabled: 1
    path: Assets/Scenes/Initializer.unity
    guid: 2e4dadad44cd7de4fa4e15ba243761b7
  - enabled: 1
    path: Assets/Scenes/Menu.unity
    guid: 6dfaa190fd4de614fa50fc88a4d03e5d
  - enabled: 1
    path: Assets/Levels/1ok.unity
    guid: 23f5522ce081e2f4d8d39c5ffc7828d2
  - enabled: 1
    path: Assets/Levels/2ok.unity
    guid: eafec193410eea74d99b29888a55f7b1
  - enabled: 1
    path: Assets/Levels/3ok.unity
    guid: 8a96ce208b8b4db4d8bbe3fb90d648e2
  - enabled: 1
    path: Assets/Levels/4okT.unity
    guid: eeb889d519e6ba14badec3e8682388d6
  - enabled: 1
    path: Assets/Levels/5ok.unity
    guid: 22b9d6086b0db554ebcc23920dbe8f69
  - enabled: 1
    path: Assets/Levels/6ok.unity
    guid: d770d23c808b4554b8dffb83199250fa
  - enabled: 1
    path: Assets/Levels/7ok.unity
    guid: dfb64be19086ac440b6e1e4e75b30629
  - enabled: 1
    path: Assets/Levels/8ok.unity
    guid: 676831a0be71d494db97f4d12d52d5aa
  - enabled: 1
    path: Assets/Levels/9ok.unity
    guid: 686adfc5f203c58448698425d320a28c
  - enabled: 1
    path: Assets/Levels/10ok.unity
    guid: 3e1eef461ebca8f4cab1a2d2d17e5bee
  - enabled: 1
    path: Assets/Levels/11ok.unity
    guid: 99fbe5026ede91e41a43d685b6123a92
  - enabled: 1
    path: Assets/Levels/12ok.unity
    guid: d77a00a0b367fd24da849649955c7813
  - enabled: 1
    path: Assets/Levels/13ok.unity
    guid: ac1ae39f3251f4c419678ab1362c133e
  - enabled: 1
    path: Assets/Levels/14ok.unity
    guid: ee12b570ddccbcc4b8ef0b1326fa11b3
  - enabled: 1
    path: Assets/Levels/15ok.unity
    guid: 5d558e6248e9c9443aa0bc7ab41644aa
  - enabled: 1
    path: Assets/Levels/16ok.unity
    guid: 0107e011f5104ca4fb8016e10ab2b64b
  - enabled: 1
    path: Assets/Levels/17ok.unity
    guid: 1f454722d0225d249b58d8b9a0e9750f
  - enabled: 1
    path: Assets/Levels/18ok.unity
    guid: f175c8289321d354299636645d9b0bc9
  - enabled: 1
    path: Assets/Levels/19ok.unity
    guid: d6727013aaffd954680b81c3e518fec2
  - enabled: 1
    path: Assets/Levels/20ok.unity
    guid: 878e8be12a216b44d97ae8d4d6f81664
  - enabled: 1
    path: Assets/Levels/21ok.unity
    guid: 952dcbf3a616de648baeb9bf3217ca69
  - enabled: 1
    path: Assets/Levels/22ok.unity
    guid: 00f301de2b4dc4d479fce3df73e9035e
  - enabled: 1
    path: Assets/Levels/23ok.unity
    guid: ff5be377ccae7c54bb1f229d8010a4ef
  - enabled: 1
    path: Assets/Levels/24ok.unity
    guid: 0cf280f686f719c499616f720cacf75d
  - enabled: 1
    path: Assets/Levels/25ok.unity
    guid: 87ce99b3559986f469655b6a8c82e572
  - enabled: 1
    path: Assets/Levels/26ok.unity
    guid: 60ea691b849dd2b41a08b68410e12190
  - enabled: 1
    path: Assets/Levels/27ok.unity
    guid: f74253eabdb58494e983991e54884479
  - enabled: 1
    path: Assets/Levels/28ok.unity
    guid: 182065afaf066614f84719972ffda518
  - enabled: 1
    path: Assets/Levels/29ok.unity
    guid: 53e85c86fc3c17b40b172b177345a316
  - enabled: 1
    path: Assets/Levels/30ok.unity
    guid: c1528f2a43d5f9747bf14e3be37a02b1
  - enabled: 1
    path: Assets/Levels/31ok.unity
    guid: e8c8336a681470d48bed3d37d0320e70
  - enabled: 1
    path: Assets/Levels/32ok.unity
    guid: 98cf17d851721db4c835906022f475af
  - enabled: 1
    path: Assets/Levels/33ok.unity
    guid: 29e9e12ea6c564b4a82a10f1051bd132
  - enabled: 1
    path: Assets/Levels/34ok.unity
    guid: 872344cc909da4b4b8b9274828cfa331
  - enabled: 1
    path: Assets/Levels/35ok.unity
    guid: e99922adce389b64fa6faae221b4f351
  - enabled: 1
    path: Assets/Levels/36ok.unity
    guid: 08f90be16741c534ca594a11180c7ccc
  - enabled: 1
    path: Assets/Levels/37ok.unity
    guid: fee95f3078ebbed4ca25508a372dee1e
  - enabled: 1
    path: Assets/Levels/38ok.unity
    guid: ad82e4d9edde5f14aa9cf4dfc9ea6303
  - enabled: 1
    path: Assets/Levels/39ok.unity
    guid: 9d81c357b67f42d47867dcc9684a38ba
  - enabled: 1
    path: Assets/Levels/40ok.unity
    guid: a8228a070d567fe479ff80ddeabeee7e
  - enabled: 1
    path: Assets/Levels/41okT.unity
    guid: 66a908cf3fb4b3b4fb30d8e4dd7ab48a
  - enabled: 1
    path: Assets/Levels/42ok.unity
    guid: 1c0954ccd5ff15f49afa7d76fa9cf4e6
  - enabled: 1
    path: Assets/Levels/43ok.unity
    guid: b817b0da638461a4f80f077f7f23bd7b
  - enabled: 1
    path: Assets/Levels/44ok.unity
    guid: 2b216536a1aa8f34088d557a1a7529c9
  - enabled: 1
    path: Assets/Levels/45ok.unity
    guid: b09241ea500c1e64da3391faf617dabe
  - enabled: 1
    path: Assets/Levels/46ok.unity
    guid: ff430eba1f5345643877e3419310abeb
  - enabled: 1
    path: Assets/Levels/47ok.unity
    guid: e5c151dbc430b274d916cfdf577075a6
  - enabled: 1
    path: Assets/Levels/48ok.unity
    guid: 419341e717ce24e4bb50270153f6499e
  - enabled: 1
    path: Assets/Levels/49ok.unity
    guid: ebda32c5f0f963445b4afba0dfd3c955
  - enabled: 1
    path: Assets/Levels/50ok.unity
    guid: 4fee569d430ec0d4db6a0dcf0d32571e
  - enabled: 1
    path: Assets/Levels/51ok.unity
    guid: 755427d0948061b47b5e1b3bc21e72a6
  - enabled: 1
    path: Assets/Levels/52ok.unity
    guid: d321d04cf8c231242be056dc4d560588
  - enabled: 1
    path: Assets/Levels/53ok.unity
    guid: f20ea40dc7151104c82b3d19af3812a9
  - enabled: 1
    path: Assets/Levels/54ok.unity
    guid: 255df2a57dde21846b4ffff2b1493075
  - enabled: 1
    path: Assets/Levels/55ok.unity
    guid: 662d8fbb7bbefe6409c1e2deeded52df
  - enabled: 1
    path: Assets/Levels/56ok.unity
    guid: 13c3e647f5865c54b8cd7f13a4bb0071
  - enabled: 1
    path: Assets/Levels/57ok.unity
    guid: 46879535285dcdc4289ac904a305ff3c
  - enabled: 1
    path: Assets/Levels/58ok.unity
    guid: 5d0bac3fa52b0e74e9b8559a1e5e89ed
  - enabled: 1
    path: Assets/Levels/59ok.unity
    guid: dd4a1db86fc2b6040aa57f302cbc541e
  - enabled: 1
    path: Assets/Levels/60ok.unity
    guid: 1575f917a32bc02469878438b3074685
  - enabled: 1
    path: Assets/Levels/61ok.unity
    guid: f927a0b867dac5241ac9240a1fddaa92
  - enabled: 1
    path: Assets/Levels/62ok.unity
    guid: 4900990121825304dbeb89dcacb9fb88
  - enabled: 1
    path: Assets/Levels/63ok.unity
    guid: 0c86cd094f78bfb4e828163b8e3f1c0a
  - enabled: 1
    path: Assets/Levels/64okT.unity
    guid: 9f44b0689b8c404459e6c228b0c5481c
  - enabled: 1
    path: Assets/Levels/65new1.unity
    guid: c8361cc1dfad7ac468037c83afa536e6
  - enabled: 1
    path: Assets/Levels/66new2.unity
    guid: 603377afaf7246043ae3e2fd6d2c73b4
  - enabled: 1
    path: Assets/Levels/67new3.unity
    guid: 580c46c5fae82f0419757c41aa9a3340
  - enabled: 1
    path: Assets/Levels/68new4.unity
    guid: ea596c397c66ecc4c9b93a409f00f42b
  - enabled: 1
    path: Assets/Levels/69new5T.unity
    guid: c92f6b9a35434bc4f82eec6b6119ba36
  - enabled: 1
    path: Assets/Levels/70new6.unity
    guid: 8d250ed765c856940b13a5488d576d19
  - enabled: 1
    path: Assets/Levels/71new7.unity
    guid: efa0a8dc2dd0e1349a2c4748f5f6fe28
  - enabled: 1
    path: Assets/Levels/72new8.unity
    guid: 4e5073c95ac3cbc47a70e18414a12bb2
  - enabled: 1
    path: Assets/Levels/73new9.unity
    guid: 328478bce9eb3d342aecd93d0be93b9d
  - enabled: 1
    path: Assets/Levels/74new10.unity
    guid: 2fd1d33c9889a6b4792dbcf55e78e6e9
  - enabled: 1
    path: Assets/Levels/75new11.unity
    guid: 1b37c9fb7a299224c8541e9a494c18db
  - enabled: 1
    path: Assets/Levels/76new12.unity
    guid: 6c590ca219024fc41a30258062eb485b
  - enabled: 1
    path: Assets/Levels/77new13.unity
    guid: ce41ab61c830402449b7fa9b25c034d4
  - enabled: 1
    path: Assets/Levels/78new14.unity
    guid: b0aa3789ac344bb40844f19803a06e7b
  - enabled: 1
    path: Assets/Levels/79new15.unity
    guid: ffbf663658de73745aad8fbe8d6a7d00
  - enabled: 1
    path: Assets/Levels/80new16.unity
    guid: cfbd3918066ca604faf5d533ab92ec5c
  - enabled: 1
    path: Assets/Levels/81new17.unity
    guid: 6c20d37fbd4aed544adedf0995dacb1c
  - enabled: 1
    path: Assets/Levels/82new18.unity
    guid: 895594001a6de0e4c8c3ababcddcaf30
  - enabled: 1
    path: Assets/Levels/83new19.unity
    guid: 6c71e3c0322c7144894eb0595d51f57d
  - enabled: 1
    path: Assets/Levels/84new20.unity
    guid: e4c81001b8fa219408fc620ffe6ed0bc
  - enabled: 1
    path: Assets/Levels/85new21.unity
    guid: 574553318f8a96840906e2daa44b4e21
  - enabled: 1
    path: Assets/Levels/86new22.unity
    guid: 0e4f4f92caa88c843b8c5042c6d0c18c
  - enabled: 1
    path: Assets/Levels/87new23.unity
    guid: ed8b5cb7ef4571845a460127925dd399
  - enabled: 1
    path: Assets/Levels/88new24.unity
    guid: 8bcaec3602182704c882583fd91c7859
  - enabled: 1
    path: Assets/Levels/89new25.unity
    guid: 6c24c6bfaa3b0c84894a3f936519097f
  - enabled: 1
    path: Assets/Levels/90new26.unity
    guid: 6b272ba912aacbd45ae59840bc3b1a84
  - enabled: 1
    path: Assets/Levels/91new27.unity
    guid: d39b52aa5826dfb4baf9706498b9eefb
  - enabled: 1
    path: Assets/Levels/92new28.unity
    guid: b8a970858ac92b7439d4cc9c5f07f546
  - enabled: 1
    path: Assets/Levels/93new29.unity
    guid: ed0207f9790b9ea438973d01ad9d9b92
  - enabled: 1
    path: Assets/Levels/94new30.unity
    guid: 94f9c85d4ad3a804f950e33e965c2e5d
  - enabled: 1
    path: Assets/Levels/95new31.unity
    guid: afaafe1b91a488e449a8f2ef2a65d50f
  - enabled: 1
    path: Assets/Levels/96new32.unity
    guid: 5ee124520d24a1a4286a2cd539276c66
  - enabled: 1
    path: Assets/Levels/97new33.unity
    guid: 307fdb39d31d0e244b579f970ee1bf41
  - enabled: 1
    path: Assets/Levels/98new34.unity
    guid: adf1e79ebbffec84a97ae197670d7c26
  - enabled: 1
    path: Assets/Levels/99new35.unity
    guid: fbd71778ce733e646be61e11a5fa8a02
  - enabled: 1
    path: Assets/Levels/100new36.unity
    guid: 1f81c01e3f26af4459747d7d30e20d70
  - enabled: 1
    path: Assets/Levels/101new37.unity
    guid: a3b3b5ef6670fb443bee0bc2e4d1791f
  - enabled: 1
    path: Assets/Levels/102new38.unity
    guid: d91c59fe13136bc4386939a19a6a82b9
  - enabled: 1
    path: Assets/Levels/103new39.unity
    guid: d99de8c8e42991847ac1b3ac30fec696
  - enabled: 1
    path: Assets/Levels/104new40.unity
    guid: 7d839f4afed03db4391219bc996e8691
  - enabled: 1
    path: Assets/Levels/105new41.unity
    guid: d428591f1b733204aa216aba7baa28b3
  - enabled: 1
    path: Assets/Levels/106new42.unity
    guid: decf40688c67b7c49bbbf6ab0f5b983c
  - enabled: 1
    path: Assets/Levels/107new43.unity
    guid: 0cefa1dea1d2d294596efc7e7a7e01d9
  - enabled: 1
    path: Assets/Levels/108new44.unity
    guid: ebe5fe1c7063b074faea3724dde4dca5
  - enabled: 1
    path: Assets/Levels/109new45.unity
    guid: 7578fd7a11ba4f44b876e4503d486a53
  - enabled: 1
    path: Assets/Levels/110new46.unity
    guid: 9d23ec07dae4743409e7ef8b1cef7aa2
  - enabled: 1
    path: Assets/Levels/111new47.unity
    guid: 68bf2300adc4bb54a804977d22f4cba5
  - enabled: 1
    path: Assets/Levels/112new48.unity
    guid: 45fc7c0b0348c6743b799ccc56606bbb
  - enabled: 1
    path: Assets/Levels/113new49.unity
    guid: 90a72b71920456841b9f872e0fa99e89
  - enabled: 1
    path: Assets/Levels/114new50.unity
    guid: be3ab05394cd3dc498baf2186925f926
  - enabled: 1
    path: Assets/Levels/115new51.unity
    guid: e86f4e3e282c8bb458bd1647d4d2971c
  - enabled: 1
    path: Assets/Levels/116new52.unity
    guid: a4789c5b631eb3d41992c97c509f6804
  - enabled: 1
    path: Assets/Levels/117new53.unity
    guid: c250c5cdb15b4e6478c31b798d132aae
  - enabled: 1
    path: Assets/Levels/118new54.unity
    guid: d973d213257e2c148a9680c54029f1d8
  - enabled: 1
    path: Assets/Levels/119new55.unity
    guid: c26f2619af1d52343b977891f7745b8f
  - enabled: 1
    path: Assets/Levels/120new56.unity
    guid: fe7873bef1ccff24a978c1e265ce407b
  - enabled: 1
    path: Assets/Levels/121new57.unity
    guid: 24060292024017b4c963bdb6d2a2e429
  - enabled: 1
    path: Assets/Levels/122new58.unity
    guid: 16d17bc1e2803084089e0e5a41b1d775
  - enabled: 1
    path: Assets/Levels/123new59.unity
    guid: 27cf23cd45f82cf4aa9bc5b194ac42df
  - enabled: 1
    path: Assets/Levels/124new60.unity
    guid: e41fb665175265443999f3293d2ccea8
  - enabled: 1
    path: Assets/Levels/125new61.unity
    guid: 2cd672ec3cc0f3a43b01bee6721d94a8
  - enabled: 1
    path: Assets/Levels/126new62.unity
    guid: 54281efef448ba742a0a4355029bd6cb
  - enabled: 1
    path: Assets/Levels/127new63.unity
    guid: 4b221facb0e115f4796fb82fb487b76d
  - enabled: 1
    path: Assets/Levels/128new64T.unity
    guid: f7c5c0e9adc85d745bc1e7f523089fa7
  - enabled: 1
    path: Assets/Scenes/Credits.unity
    guid: 2535146742ace2e42bdc756ad995361e
  - enabled: 1
    path: Assets/Scenes/Intro.unity
    guid: f93240832890f0d46baa9affd727b4c0
  m_configObjects: {}
