%YAML 1.1
%TAG !u! tag:unity3d.com,2011:
--- !u!74 &7400000
AnimationClip:
  m_ObjectHideFlags: 0
  m_PrefabParentObject: {fileID: 0}
  m_PrefabInternal: {fileID: 0}
  m_Name: tank
  serializedVersion: 6
  m_Legacy: 1
  m_Compressed: 0
  m_UseHighQualityCurve: 1
  m_RotationCurves: []
  m_CompressedRotationCurves: []
  m_PositionCurves:
  - curve:
      serializedVersion: 2
      m_Curve:
      - time: 0
        value: {x: -7.63000011, y: -2.16855907, z: 9}
        inSlope: {x: .593630254, y: 0, z: 0}
        outSlope: {x: .593630254, y: 0, z: 0}
        tangentMode: 0
      - time: .166666508
        value: {x: -7.59010315, y: -2.16855907, z: 9}
        inSlope: {x: .121302798, y: 0, z: 0}
        outSlope: {x: .121302798, y: 0, z: 0}
        tangentMode: 0
      - time: .416666657
        value: {x: -7.38265419, y: -2.16855907, z: 9}
        inSlope: {x: 2.06965256, y: 0, z: 0}
        outSlope: {x: 2.06965256, y: 0, z: 0}
        tangentMode: 0
      - time: .583333135
        value: {x: -6.99868917, y: -2.16855907, z: 9}
        inSlope: {x: 2.5278275, y: 0, z: 0}
        outSlope: {x: 2.5278275, y: 0, z: 0}
        tangentMode: 0
      - time: 2.41666675
        value: {x: -.291304111, y: -2.16855907, z: 9}
        inSlope: {x: 3.56680465, y: 0, z: 0}
        outSlope: {x: 3.56680465, y: 0, z: 0}
        tangentMode: 0
      - time: 2.58333325
        value: {x: .3218261, y: -2.16855907, z: 9}
        inSlope: {x: 3.78156829, y: 0, z: 0}
        outSlope: {x: 3.78156829, y: 0, z: 0}
        tangentMode: 0
      - time: 4.58333349
        value: {x: 7.48255396, y: -2.16320109, z: 9}
        inSlope: {x: 2.05490232, y: -.0267899577, z: 0}
        outSlope: {x: 2.05490232, y: -.0267899577, z: 0}
        tangentMode: 0
      - time: 4.75
        value: {x: 7.66151428, y: -2.16855907, z: 9}
        inSlope: {x: .337905258, y: -.0377291813, z: 0}
        outSlope: {x: .337905258, y: -.0377291813, z: 0}
        tangentMode: 0
      - time: 5
        value: {x: 7.69999981, y: -2.18591452, z: 9}
        inSlope: {x: .521870255, y: -.0875313133, z: 0}
        outSlope: {x: .521870255, y: -.0875313133, z: 0}
        tangentMode: 0
      - time: 5.16666651
        value: {x: 7.69999981, y: -2.20000005, z: 9}
        inSlope: {x: 0, y: -.0754583627, z: 0}
        outSlope: {x: 0, y: -.0754583627, z: 0}
        tangentMode: 0
      m_PreInfinity: 2
      m_PostInfinity: 2
    path: 
  m_ScaleCurves: []
  m_FloatCurves: []
  m_PPtrCurves:
  - curve:
    - time: 0
      value: {fileID: 21300000, guid: 3083077d1c622a2419f319f10701b1b6, type: 3}
    - time: .833333313
      value: {fileID: 21300000, guid: c9f3043cbc7fede40a6e9712be285894, type: 3}
    attribute: m_Sprite
    path: 
    classID: 212
    script: {fileID: 0}
  m_SampleRate: 12
  m_WrapMode: 2
  m_Bounds:
    m_Center: {x: 0, y: 0, z: 0}
    m_Extent: {x: 0, y: 0, z: 0}
  m_ClipBindingConstant:
    genericBindings: []
    pptrCurveMapping: []
  m_AnimationClipSettings:
    serializedVersion: 2
    m_StartTime: 0
    m_StopTime: 5.16666651
    m_OrientationOffsetY: 0
    m_Level: 0
    m_CycleOffset: 0
    m_LoopTime: 1
    m_LoopBlend: 0
    m_LoopBlendOrientation: 0
    m_LoopBlendPositionY: 0
    m_LoopBlendPositionXZ: 0
    m_KeepOriginalOrientation: 0
    m_KeepOriginalPositionY: 1
    m_KeepOriginalPositionXZ: 0
    m_HeightFromFeet: 0
    m_Mirror: 0
  m_EditorCurves:
  - curve:
      serializedVersion: 2
      m_Curve:
      - time: 0
        value: -7.63000011
        inSlope: .593630254
        outSlope: .593630254
        tangentMode: 10
      - time: .416666657
        value: -7.38265419
        inSlope: 2.06965256
        outSlope: 2.06965256
        tangentMode: 10
      - time: 2.41666675
        value: -.291304111
        inSlope: 3.56680465
        outSlope: 3.56680465
        tangentMode: 10
      - time: 4.58333349
        value: 7.48255396
        inSlope: 2.05490232
        outSlope: 2.05490232
        tangentMode: 10
      - time: 5
        value: 7.69999981
        inSlope: .521870255
        outSlope: .521870255
        tangentMode: 10
      m_PreInfinity: 2
      m_PostInfinity: 2
    attribute: m_LocalPosition.x
    path: 
    classID: 4
    script: {fileID: 0}
  - curve:
      serializedVersion: 2
      m_Curve:
      - time: .166666508
        value: -2.16855907
        inSlope: 0
        outSlope: 0
        tangentMode: 10
      - time: .583333135
        value: -2.16855907
        inSlope: 0
        outSlope: 0
        tangentMode: 10
      - time: 2.58333325
        value: -2.16855907
        inSlope: 0
        outSlope: 0
        tangentMode: 10
      - time: 4.75
        value: -2.16855907
        inSlope: -.0377291813
        outSlope: -.0377291813
        tangentMode: 10
      - time: 5.16666651
        value: -2.20000005
        inSlope: -.0754583627
        outSlope: -.0754583627
        tangentMode: 10
      m_PreInfinity: 2
      m_PostInfinity: 2
    attribute: m_LocalPosition.y
    path: 
    classID: 4
    script: {fileID: 0}
  - curve:
      serializedVersion: 2
      m_Curve:
      - time: 0
        value: 9
        inSlope: 0
        outSlope: 0
        tangentMode: 10
      - time: .416666657
        value: 9
        inSlope: 0
        outSlope: 0
        tangentMode: 10
      - time: 2.41666675
        value: 9
        inSlope: 0
        outSlope: 0
        tangentMode: 10
      - time: 4.58333349
        value: 9
        inSlope: 0
        outSlope: 0
        tangentMode: 10
      - time: 5
        value: 9
        inSlope: 0
        outSlope: 0
        tangentMode: 10
      m_PreInfinity: 2
      m_PostInfinity: 2
    attribute: m_LocalPosition.z
    path: 
    classID: 4
    script: {fileID: 0}
  m_EulerEditorCurves: []
  m_HasGenericRootTransform: 0
  m_HasMotionFloatCurves: 0
  m_GenerateMotionCurves: 0
  m_Events: []
